<?xml version="1.0" encoding="UTF-8" standalone="no"?>
<!DOCTYPE svg PUBLIC "-//W3C//DTD SVG 1.1//EN" "http://www.w3.org/Graphics/SVG/1.1/DTD/svg11.dtd">
<svg width="100%" height="100%" viewBox="0 0 471 155" version="1.1" xmlns="http://www.w3.org/2000/svg" xmlns:xlink="http://www.w3.org/1999/xlink" xml:space="preserve" xmlns:serif="http://www.serif.com/" style="fill-rule:evenodd;clip-rule:evenodd;stroke-linejoin:round;stroke-miterlimit:2;">
    <g transform="matrix(4.16667,0,0,4.16667,0,0)">
        <path d="M53.021,33.07C53.021,32.566 52.921,32.134 52.877,31.962C52.446,30.146 51.15,29.571 50.459,29.37C49.941,29.225 49.494,29.21 49.292,29.21C48.658,29.21 46.773,29.355 45.895,31.199C45.491,32.004 45.463,32.796 45.463,33.114C45.463,35.402 46.931,36.986 49.235,36.986C51.049,36.986 52.46,36.036 52.877,34.237C52.921,34.078 53.021,33.574 53.021,33.07ZM51.25,33.056C51.237,33.963 51.049,35.201 50.229,35.748C50.069,35.849 49.767,36.022 49.292,36.022C48.846,36.022 48.458,35.877 48.127,35.589C47.623,35.158 47.406,34.554 47.305,33.919C47.291,33.79 47.248,33.443 47.248,33.07C47.248,31.658 47.723,30.868 48.227,30.507C48.644,30.205 49.062,30.177 49.248,30.177C49.437,30.177 49.811,30.205 50.2,30.45C51.294,31.141 51.25,32.853 51.25,33.056ZM54.628,29.399L53.505,29.399L53.505,30.55L54.628,30.55L54.628,36.799L56.341,36.799L56.341,30.55L57.652,30.55L57.652,29.399L56.341,29.399L56.341,27.915C56.341,27.8 56.269,27.038 56.888,26.821C57.062,26.748 57.235,26.748 57.292,26.748C57.45,26.748 57.58,26.792 57.637,26.821L57.652,25.698C57.479,25.698 56.515,25.626 55.794,25.943C54.657,26.447 54.657,27.858 54.643,28.132C54.628,28.305 54.628,28.477 54.628,28.635L54.628,29.399ZM63.354,36.799L66.535,36.799C67.256,36.785 67.558,36.741 67.918,36.655C69.228,36.339 69.876,35.46 70.092,34.999C70.308,34.538 70.322,34.092 70.322,33.919C70.322,32.983 69.919,32.494 69.659,32.22C69.531,32.105 69.4,31.989 69.271,31.861L68.71,31.342C69.299,30.708 69.919,30.06 69.919,29.139C69.919,28.865 69.848,28.305 69.386,27.728C68.581,26.691 67.486,26.648 67.025,26.635C66.823,26.621 66.606,26.621 66.406,26.635L63.354,26.635L63.354,36.799ZM65.111,27.829C65.325,27.715 65.685,27.541 66.275,27.541C67.069,27.541 67.904,27.887 68.291,28.606C68.35,28.707 68.478,28.952 68.478,29.283C68.478,29.831 68.076,30.263 67.99,30.363C67.615,30.781 67.097,31.185 67.097,31.745C67.097,31.917 67.141,32.076 67.227,32.235C67.284,32.321 67.4,32.479 67.586,32.666C68.047,33.098 68.652,33.459 68.652,34.164C68.652,34.582 68.494,34.97 68.205,35.272C67.773,35.748 67.154,35.891 66.535,35.891C65.829,35.891 65.412,35.734 65.125,35.648L65.111,27.829ZM78.564,29.312L77.643,29.859C76.375,29.34 75.958,29.21 75.209,29.21C73.783,29.21 72.429,29.946 71.796,31.227C71.408,32.019 71.378,32.839 71.378,33.127C71.378,34.106 71.71,34.812 71.882,35.144C72.128,35.561 72.401,35.835 72.531,35.964C73.481,36.785 74.662,36.77 75.05,36.785C75.309,36.799 75.554,36.799 75.799,36.799L78.564,36.799L78.564,29.312ZM76.879,35.546C76.16,35.791 75.872,35.835 75.468,35.835C75.294,35.849 74.835,35.821 74.388,35.618C73.38,35.158 73.251,34.092 73.208,33.76C73.15,33.415 73.15,33.127 73.15,32.983C73.15,32.739 73.15,31.154 74.258,30.435C74.69,30.162 75.108,30.118 75.294,30.118C76.246,30.118 76.648,30.781 76.764,31.098C76.879,31.399 76.879,31.745 76.879,31.846L76.879,35.546ZM80.067,34.941L80.054,36.583C80.427,36.727 81.031,36.986 81.996,37C83.106,37 83.681,36.655 84.069,36.325C84.804,35.675 84.862,34.898 84.862,34.524C84.862,34.265 84.804,33.516 84.17,32.998C83.753,32.652 83.148,32.465 82.644,32.263C82.198,32.091 81.967,31.962 81.794,31.803C81.622,31.658 81.521,31.429 81.521,31.185C81.521,31.068 81.549,30.823 81.738,30.594C82.069,30.205 82.716,30.177 82.816,30.177C83.32,30.177 83.738,30.377 84.127,30.681C84.257,30.767 84.372,30.852 84.487,30.954L84.487,29.5C83.911,29.312 83.479,29.196 82.875,29.196C82.471,29.196 82.097,29.254 81.953,29.283C81.492,29.383 81.19,29.542 81.031,29.643C80.398,30.06 79.995,30.81 79.995,31.558C79.995,31.775 80.038,32.408 80.484,32.883C80.917,33.343 81.708,33.588 81.823,33.631C82.429,33.833 83.336,34.092 83.336,34.898C83.336,34.999 83.32,35.215 83.163,35.432C83.004,35.648 82.702,35.949 82.069,35.949C81.147,35.949 80.484,35.387 80.283,35.201L80.067,34.941ZM92.823,33.143C92.808,32.853 92.852,31.817 92.419,30.925C91.642,29.355 89.971,29.21 89.454,29.21C88.978,29.21 87.652,29.327 86.717,30.435C85.854,31.458 85.796,32.767 85.796,33.186C85.796,34.97 86.717,35.906 87.308,36.309C87.711,36.598 88.518,36.986 89.741,37C90.691,37 91.397,36.77 91.729,36.655C92.102,36.512 92.419,36.339 92.548,36.267L92.548,34.812C92.217,35.128 92.102,35.245 91.901,35.387C91.167,35.936 90.49,35.993 90.115,35.993C89.51,35.993 88.82,35.805 88.388,35.374C87.841,34.855 87.683,34.064 87.638,33.862C87.596,33.602 87.596,33.415 87.582,33.143L92.823,33.143ZM87.652,32.192C87.683,31.976 87.711,31.759 87.783,31.544C87.869,31.271 88.302,30.205 89.41,30.19C89.568,30.19 89.9,30.219 90.26,30.45C90.907,30.852 91.008,31.472 91.052,32.177L87.652,32.192ZM95.881,25.698L94.168,25.698L94.168,36.799L95.881,36.799L95.881,25.698Z" style="fill-rule:nonzero;"/>
        <path d="M54.476,12.016L52.719,12.016L52.719,17.804C52.733,18.695 52.719,19.158 52.604,19.589C52.474,20.036 52.244,20.322 52.128,20.466C51.898,20.726 51.552,21.043 50.789,21.172C50.488,21.23 50.243,21.23 50.128,21.23C48.617,21.23 47.996,20.424 47.767,19.833C47.593,19.372 47.55,18.826 47.564,17.804L47.564,12.016L45.808,12.016L45.808,17.43C45.793,18.624 45.838,19.272 46.009,19.805C46.196,20.438 46.6,21.03 47.132,21.431C47.593,21.807 48.617,22.368 50.128,22.368C51.496,22.368 52.474,21.893 52.921,21.62C53.971,20.928 54.275,19.92 54.375,19.458C54.476,18.969 54.491,18.465 54.476,17.43L54.476,12.016ZM56.247,14.78L56.247,22.18L57.96,22.18L57.96,16.062C58.249,15.916 58.564,15.745 59.241,15.745C60.35,15.745 60.783,16.248 60.94,16.738C61.012,16.968 61.042,17.197 61.056,17.703L61.056,22.18L62.754,22.18L62.754,17.703C62.697,16.867 62.639,16.133 61.963,15.557C61.143,14.852 60.062,14.78 57.96,14.78L56.247,14.78ZM66.484,14.78L64.77,14.78L64.77,22.181L66.484,22.181L66.484,14.78ZM64.612,12.937C64.612,13.498 65.072,13.945 65.62,13.945C66.181,13.945 66.642,13.498 66.642,12.937C66.642,12.375 66.197,11.915 65.634,11.915C65.072,11.915 64.612,12.375 64.612,12.937ZM75.944,14.78L74.403,14.78L72.286,20.683C72.185,20.999 72.17,21.072 71.94,21.072L69.709,14.78L67.852,14.78L70.586,22.18L71.465,22.18C71.998,22.166 72.416,22.151 72.877,21.864C73.482,21.475 73.769,20.74 74,20.107L75.944,14.78ZM83.242,18.523C83.228,18.235 83.27,17.197 82.839,16.306C82.061,14.736 80.391,14.593 79.873,14.593C79.397,14.593 78.073,14.708 77.138,15.816C76.273,16.839 76.216,18.149 76.216,18.567C76.216,20.352 77.138,21.288 77.728,21.691C78.13,21.978 78.937,22.368 80.16,22.382C81.111,22.382 81.816,22.151 82.148,22.037C82.522,21.893 82.839,21.72 82.969,21.647L82.969,20.193C82.638,20.51 82.522,20.626 82.321,20.77C81.585,21.316 80.91,21.374 80.535,21.374C79.93,21.374 79.24,21.187 78.806,20.755C78.26,20.236 78.102,19.445 78.059,19.243C78.015,18.984 78.015,18.797 78.002,18.523L83.242,18.523ZM78.073,17.573C78.102,17.357 78.13,17.141 78.202,16.924C78.288,16.651 78.72,15.586 79.83,15.572C79.987,15.572 80.319,15.599 80.68,15.83C81.327,16.234 81.427,16.853 81.471,17.559L78.073,17.573ZM84.596,14.78L84.596,22.18L86.309,22.18L86.309,15.889C86.582,15.758 86.899,15.629 87.546,15.672C87.489,15.758 87.389,15.874 87.389,16.12C87.389,16.335 87.446,16.479 87.475,16.551C87.633,16.911 87.979,17.112 88.383,17.112C89.03,17.112 89.418,16.637 89.418,16.018C89.418,15.672 89.274,15.443 89.218,15.341C88.871,14.822 88.21,14.809 87.647,14.78L84.596,14.78ZM90.285,20.322L90.272,21.964C90.645,22.108 91.25,22.368 92.216,22.382C93.323,22.382 93.9,22.037 94.288,21.705C95.022,21.057 95.081,20.28 95.081,19.905C95.081,19.646 95.022,18.897 94.388,18.378C93.97,18.034 93.366,17.847 92.862,17.645C92.416,17.473 92.186,17.343 92.013,17.184C91.84,17.04 91.74,16.81 91.74,16.566C91.74,16.451 91.768,16.206 91.956,15.975C92.286,15.586 92.935,15.557 93.035,15.557C93.539,15.557 93.957,15.758 94.346,16.062C94.475,16.147 94.591,16.234 94.705,16.335L94.705,14.881C94.129,14.695 93.697,14.578 93.093,14.578C92.689,14.578 92.316,14.636 92.171,14.664C91.711,14.766 91.408,14.924 91.25,15.025C90.617,15.443 90.213,16.19 90.213,16.939C90.213,17.156 90.256,17.789 90.704,18.264C91.135,18.724 91.926,18.969 92.043,19.013C92.647,19.214 93.553,19.473 93.553,20.28C93.553,20.38 93.539,20.597 93.38,20.812C93.223,21.03 92.92,21.331 92.286,21.331C91.366,21.331 90.704,20.77 90.501,20.582L90.285,20.322ZM98.434,14.78L96.722,14.78L96.722,22.181L98.434,22.181L98.434,14.78ZM96.563,12.937C96.563,13.498 97.022,13.945 97.57,13.945C98.133,13.945 98.593,13.498 98.593,12.937C98.593,12.375 98.147,11.915 97.586,11.915C97.022,11.915 96.563,12.375 96.563,12.937ZM103.862,14.78L102.567,14.78L102.567,12.246C102.567,12.073 102.582,11.798 102.337,11.798C102.281,11.798 102.178,11.829 102.136,11.856C102.063,11.915 102.05,12.03 102.035,12.216C101.934,12.879 101.747,13.527 101.315,14.031C100.725,14.751 100.092,14.766 99.716,14.795L99.716,15.932L100.84,15.932L100.84,22.18L102.567,22.18L102.567,15.932L103.862,15.932L103.862,14.78ZM112.537,14.78L110.982,14.78L108.65,21.316L106.332,14.78L104.444,14.78L107.253,22.166C107.396,22.224 107.482,22.267 107.541,22.311C107.742,22.455 107.844,22.714 107.844,22.958C107.844,23.433 107.527,23.663 107.382,23.749C106.95,23.98 106.101,23.865 106.073,23.865L106.058,25.161C106.648,25.161 107.223,25.161 107.786,24.945C108.477,24.7 108.822,24.24 109.139,23.578C109.354,23.159 109.512,22.714 109.671,22.267L112.537,14.78Z" style="fill-rule:nonzero;"/>
        <path d="M12.141,13.686C12.141,13.229 12.845,13.229 12.845,13.686L12.845,23.263C12.845,23.72 12.141,23.72 12.141,23.263L12.141,13.686ZM12.141,11.046C12.141,11.503 12.845,11.503 12.845,11.046L12.845,0.15L12.141,0.15L12.141,11.046ZM12.141,25.903C12.141,25.446 12.846,25.446 12.846,25.903L12.846,36.799L12.141,36.799L12.141,25.903ZM24.636,23.263C24.636,23.72 25.339,23.72 25.339,23.263L25.339,13.686C25.339,13.229 24.636,13.229 24.636,13.686L24.636,23.263ZM24.636,0.15L25.339,0.15L25.339,11.046C25.339,11.503 24.636,11.503 24.636,11.046L24.636,0.15ZM24.636,36.799L25.339,36.799L25.339,25.903C25.339,25.446 24.636,25.446 24.636,25.903L24.636,36.799ZM23.638,12.02C24.104,12.02 24.104,12.71 23.638,12.71L13.843,12.71C13.377,12.71 13.377,12.02 13.843,12.02L23.638,12.02ZM13.843,24.238C13.377,24.238 13.377,24.927 13.843,24.927L23.638,24.927C24.104,24.927 24.104,24.238 23.638,24.238L13.843,24.238ZM37.482,12.02L37.482,12.71L26.337,12.71C25.87,12.71 25.87,12.02 26.337,12.02L37.482,12.02ZM0,12.02L0,12.71L11.144,12.71C11.611,12.71 11.611,12.02 11.144,12.02L0,12.02ZM37.482,24.238L37.482,24.927L26.337,24.927C25.87,24.927 25.87,24.238 26.337,24.238L37.482,24.238ZM0,24.238L0,24.927L11.144,24.927C11.611,24.927 11.611,24.238 11.144,24.238L0,24.238ZM18.254,17.515C18.585,17.837 18.087,18.325 17.757,18.002C17.427,17.678 13.2,13.546 13.2,13.546C12.87,13.224 13.369,12.736 13.699,13.06C13.983,13.337 18.254,17.515 18.254,17.515ZM13.699,25.276C13.369,24.953 12.87,25.44 13.2,25.763C13.2,25.763 17.427,29.896 17.757,30.218C18.087,30.541 18.585,30.054 18.254,29.731C18.254,29.731 13.983,25.554 13.699,25.276ZM30.751,17.515C31.081,17.837 30.584,18.325 30.252,18.002C29.923,17.678 25.697,13.546 25.697,13.546C25.366,13.224 25.864,12.736 26.194,13.06C26.48,13.337 30.751,17.515 30.751,17.515ZM24.279,13.546C24.61,13.223 24.111,12.736 23.782,13.059C23.782,13.059 19.555,17.191 19.225,17.514C18.895,17.837 19.393,18.324 19.724,18.002C19.724,18.002 23.995,13.824 24.279,13.546ZM19.724,30.217C19.393,30.541 18.895,30.053 19.225,29.73C19.555,29.407 23.782,25.275 23.782,25.275C24.111,24.952 24.61,25.439 24.279,25.762C23.995,26.04 19.724,30.217 19.724,30.217ZM11.79,13.546C12.121,13.223 11.623,12.736 11.293,13.059C11.293,13.059 7.066,17.191 6.736,17.514C6.406,17.837 6.903,18.324 7.234,18.002C7.234,18.002 11.506,13.824 11.79,13.546ZM18.254,19.436C18.585,19.112 18.087,18.625 17.757,18.948C17.427,19.27 13.2,23.403 13.2,23.403C12.87,23.726 13.369,24.213 13.699,23.891C13.983,23.612 18.254,19.436 18.254,19.436ZM13.699,11.673C13.369,11.996 12.87,11.508 13.2,11.186C13.2,11.186 17.427,7.053 17.757,6.731C18.087,6.407 18.585,6.895 18.254,7.218C18.254,7.218 13.983,11.394 13.699,11.673ZM30.751,19.436C31.081,19.112 30.584,18.625 30.252,18.948C29.923,19.27 25.697,23.403 25.697,23.403C25.366,23.726 25.864,24.213 26.194,23.891C26.48,23.612 30.751,19.436 30.751,19.436ZM24.279,23.403C24.609,23.726 24.111,24.214 23.78,23.891C23.78,23.891 19.555,19.759 19.225,19.436C18.894,19.112 19.393,18.625 19.723,18.948C19.723,18.948 23.995,23.125 24.279,23.403ZM19.723,6.731C19.393,6.407 18.894,6.895 19.225,7.219C19.555,7.542 23.78,11.674 23.78,11.674C24.111,11.996 24.609,11.51 24.279,11.186C23.995,10.908 19.723,6.731 19.723,6.731ZM11.744,23.361C12.074,23.685 11.575,24.172 11.246,23.849C11.246,23.849 7.02,19.717 6.69,19.394C6.359,19.07 6.858,18.583 7.187,18.906C7.187,18.906 11.46,23.083 11.744,23.361ZM34.607,33.496L34.108,33.982L25.695,25.757C25.364,25.433 25.862,24.946 26.192,25.269C26.478,25.547 34.607,33.496 34.607,33.496ZM11.29,25.271C11.62,24.949 12.118,25.436 11.787,25.759L3.373,33.984L2.876,33.499C2.876,33.499 11.004,25.549 11.29,25.271ZM34.108,2.962L34.607,3.45L26.192,11.677C25.862,12 25.364,11.513 25.695,11.19C25.979,10.912 34.108,2.962 34.108,2.962ZM11.788,11.192C12.118,11.515 11.62,12.002 11.29,11.679L2.876,3.452L3.374,2.965C3.374,2.965 11.504,10.914 11.788,11.192ZM34.607,21.283L34.108,21.768L31.721,19.434C31.391,19.111 31.888,18.624 32.218,18.947C32.504,19.225 34.607,21.283 34.607,21.283ZM31.717,17.511C31.387,17.833 31.886,18.321 32.216,17.997L34.604,15.662L34.106,15.176C34.106,15.176 32.003,17.233 31.717,17.511ZM21.611,2.959L22.109,3.447L19.723,5.781C19.392,6.104 18.894,5.617 19.224,5.295C19.508,5.015 21.611,2.959 21.611,2.959ZM17.76,5.781C18.09,6.104 18.587,5.617 18.258,5.295L15.87,2.959L15.372,3.447C15.372,3.447 17.476,5.503 17.76,5.781ZM2.876,21.288L3.375,21.775L5.763,19.439C6.093,19.117 5.595,18.629 5.265,18.953C4.98,19.231 2.876,21.288 2.876,21.288ZM5.761,17.515C6.092,17.837 5.594,18.325 5.264,18.002L2.876,15.667L3.373,15.18C3.373,15.18 5.476,17.236 5.761,17.515ZM15.867,33.986L15.369,33.5L17.757,31.164C18.087,30.842 18.585,31.328 18.256,31.652C17.972,31.93 15.867,33.986 15.867,33.986ZM19.725,31.163C19.395,30.839 18.896,31.327 19.226,31.651L21.614,33.984L22.112,33.499C22.112,33.499 20.008,31.441 19.725,31.163Z" style="fill-rule:nonzero;"/>
    </g>
</svg>
